<?xml version="1.0" encoding="UTF-8" standalone="no"?>
<svg
   xmlns:dc="http://purl.org/dc/elements/1.1/"
   xmlns:cc="http://creativecommons.org/ns#"
   xmlns:rdf="http://www.w3.org/1999/02/22-rdf-syntax-ns#"
   xmlns:svg="http://www.w3.org/2000/svg"
   xmlns="http://www.w3.org/2000/svg"
   xmlns:sodipodi="http://sodipodi.sourceforge.net/DTD/sodipodi-0.dtd"
   xmlns:inkscape="http://www.inkscape.org/namespaces/inkscape"
   inkscape:version="1.0.1 (3bc2e813f5, 2020-09-07, custom)"
   id="svg8"
   version="1.1"
   viewBox="0 0 67.733332 33.866668"
   height="128"
   width="256"
   sodipodi:docname="disroot.svg">
  <defs
     id="defs2" />
  <sodipodi:namedview
     units="px"
     showgrid="false"
     inkscape:document-rotation="0"
     inkscape:current-layer="layer1"
     inkscape:document-units="px"
     inkscape:cy="157.46581"
     inkscape:cx="164.49587"
     inkscape:zoom="1.4"
     inkscape:pageshadow="2"
     inkscape:pageopacity="0"
     borderopacity="1.0"
     bordercolor="#666666"
     pagecolor="#d2d2d2"
     id="base"
     inkscape:window-width="2560"
     inkscape:window-height="1376"
     inkscape:window-x="0"
     inkscape:window-y="0"
     inkscape:window-maximized="1" />
  <metadata
     id="metadata5">
    <rdf:RDF>
      <cc:Work
         rdf:about="">
        <dc:format>image/svg+xml</dc:format>
        <dc:type
           rdf:resource="http://purl.org/dc/dcmitype/StillImage" />
        <dc:title></dc:title>
      </cc:Work>
    </rdf:RDF>
  </metadata>
  <g
     id="layer1"
     inkscape:groupmode="layer"
     inkscape:label="Layer 1">
    <rect
       style="fill:#50162d;stroke-width:3.47907;stroke-linecap:round;paint-order:markers stroke fill;fill-opacity:1"
       id="rect848"
       width="67.733337"
       height="33.866669"
       x="-1.7011719e-06"
       y="-8.5058593e-07" />
    <path
       style="fill:#ffffff;fill-opacity:1;stroke-width:1"
       d="m 29.436939,26.72533 c -0.280978,-0.05418 -0.570026,-0.417677 -0.699731,-0.879947 -0.157557,-0.561527 -0.09911,-0.712046 0.481016,-1.238788 1.366097,-1.240386 1.615165,-1.608141 1.607781,-2.373948 C 30.822205,21.834959 30.6507,21.37262 28.88459,16.998061 26.719711,11.63577 26.83934,11.85908 26.006439,11.62538 c -0.67804,-0.190247 -2.342899,-0.23212 -3.335414,-0.08389 -1.274997,0.19042 -1.503909,0.0765 -1.504357,-0.748668 -1.98e-4,-0.360451 0.04305,-0.571356 0.170035,-0.8292157 0.486192,-0.987285 2.273785,-2.211974 3.930569,-2.692852 1.62288,-0.471038 6.492429,0.154503 10.074542,1.294172 2.870641,0.91331 4.003326,1.4495717 6.747298,3.1944707 1.633407,1.038686 2.452437,1.701186 3.307031,2.675001 0.674048,0.768082 0.942066,1.234629 1.079246,1.878678 0.323481,1.518718 -0.216585,3.079869 -1.560356,4.510475 -2.0145,2.144674 -5.751842,3.919334 -11.003849,5.225124 -2.174669,0.540682 -3.85868,0.795359 -4.474245,0.676653 z m 9.635024,-4.824871 c 1.475071,-0.485215 2.11153,-1.181763 2.181314,-2.387254 0.04793,-0.827905 -0.111833,-1.146394 -0.994211,-1.98201 -1.355,-1.283187 -2.661316,-2.258042 -3.87907,-2.894801 -0.629997,-0.329423 -1.838254,-0.800895 -2.052485,-0.800895 -0.06882,0 -0.01913,0.238838 0.177688,0.854255 0.433066,1.354049 1.568119,4.58535 1.806822,5.143707 0.361115,0.844693 0.468626,1.307886 0.428126,1.844511 -0.02001,0.265085 -0.05921,0.552524 -0.08711,0.638755 l -0.05074,0.156783 0.990738,-0.206233 c 0.544908,-0.113427 1.210426,-0.278495 1.478928,-0.366818 z"
       id="path870" />
  </g>
</svg>
