<?xml version="1.0" encoding="UTF-8" standalone="no"?>
<svg
   xmlns:dc="http://purl.org/dc/elements/1.1/"
   xmlns:cc="http://creativecommons.org/ns#"
   xmlns:rdf="http://www.w3.org/1999/02/22-rdf-syntax-ns#"
   xmlns:svg="http://www.w3.org/2000/svg"
   xmlns="http://www.w3.org/2000/svg"
   xmlns:xlink="http://www.w3.org/1999/xlink"
   xmlns:sodipodi="http://sodipodi.sourceforge.net/DTD/sodipodi-0.dtd"
   xmlns:inkscape="http://www.inkscape.org/namespaces/inkscape"
   inkscape:version="1.0.1 (3bc2e813f5, 2020-09-07, custom)"
   id="svg8"
   version="1.1"
   viewBox="0 0 67.733332 33.866668"
   height="128"
   width="256"
   sodipodi:docname="duckduckgo.svg">
  <defs
     id="defs2">
    <circle
       id="a"
       cx="50.833"
       cy="50.833"
       r="50.25" />
    <linearGradient
       x1="5.5300981"
       y1="28.948812"
       x2="12.284253"
       y2="28.948812"
       id="c"
       gradientTransform="scale(1.2727833,0.78567969)"
       gradientUnits="userSpaceOnUse">
      <stop
         stop-color="#6176B9"
         offset=".56%"
         id="stop834" />
      <stop
         stop-color="#394A9F"
         offset="69.1%"
         id="stop836" />
    </linearGradient>
    <linearGradient
       x1="20.540734"
       y1="33.655896"
       x2="25.26145"
       y2="33.655896"
       id="d"
       gradientTransform="scale(1.6592652,0.6026764)"
       gradientUnits="userSpaceOnUse">
      <stop
         stop-color="#6176B9"
         offset=".56%"
         id="stop839" />
      <stop
         stop-color="#394A9F"
         offset="69.1%"
         id="stop841" />
    </linearGradient>
    <clipPath
       id="a-6">
      <circle
         cx="127.33"
         cy="78.97"
         r="52"
         id="circle921" />
    </clipPath>
    <linearGradient
       id="b-7"
       gradientUnits="userSpaceOnUse"
       x1="1893.32"
       y1="-2381.98"
       x2="1901.89"
       y2="-2381.98"
       gradientTransform="matrix(1,0,0,-1,-1788,-2321)">
      <stop
         offset=".01"
         stop-color="#6176b9"
         id="stop924" />
      <stop
         offset=".69"
         stop-color="#394a9f"
         id="stop926" />
    </linearGradient>
    <linearGradient
       id="c-5"
       gradientUnits="userSpaceOnUse"
       x1="1920.27"
       y1="-2379.37"
       x2="1928.08"
       y2="-2379.37"
       gradientTransform="matrix(1,0,0,-1,-1788,-2321)">
      <stop
         offset=".01"
         stop-color="#6176b9"
         id="stop929" />
      <stop
         offset=".69"
         stop-color="#394a9f"
         id="stop931" />
    </linearGradient>
    <path
       id="d-3"
       d="M22.56 180.57v-24.6h8.92c8.49 0 12.35 6.24 12.35 12.04 0 6.25-3.82 12.56-12.35 12.56h-8.92zm2.84-2.83h6.08c6.57 0 9.52-4.9 9.52-9.77 0-4.46-2.98-9.27-9.52-9.27H25.4v19.04zm29.66 3.12c-4.56 0-7.5-3.14-7.5-8v-9.55h2.65v9.52c0 3.5 2.04 5.58 5.45 5.58 3.2-.03 5.51-2.48 5.51-5.83v-9.27h2.66v17.26H61.4l-.15-3-.41.52a7.2 7.2 0 0 1-5.8 2.77zm21.73.03c-4.5 0-9.02-2.77-9.02-8.95 0-5.35 3.62-8.94 9.02-8.94 2.36 0 4.43.84 6.16 2.5l-1.67 1.73a6.53 6.53 0 0 0-4.42-1.72c-3.77 0-6.4 2.65-6.4 6.43 0 4.45 3.2 6.44 6.36 6.44 1.78 0 3.4-.63 4.58-1.79l1.73 1.74a8.8 8.8 0 0 1-6.34 2.56zm20.9-.32l-8.44-8.43v8.43h-2.62v-24.56h2.62v14.86l7.37-7.56h3.44l-8.14 8.14 9.13 9.09v.03z" />
  </defs>
  <sodipodi:namedview
     units="px"
     showgrid="false"
     inkscape:document-rotation="0"
     inkscape:current-layer="layer1"
     inkscape:document-units="px"
     inkscape:cy="166.84942"
     inkscape:cx="238.62897"
     inkscape:zoom="1.979899"
     inkscape:pageshadow="2"
     inkscape:pageopacity="0"
     borderopacity="1.0"
     bordercolor="#666666"
     pagecolor="#ffffff"
     id="base"
     inkscape:window-width="2560"
     inkscape:window-height="1376"
     inkscape:window-x="0"
     inkscape:window-y="0"
     inkscape:window-maximized="1" />
  <metadata
     id="metadata5">
    <rdf:RDF>
      <cc:Work
         rdf:about="">
        <dc:format>image/svg+xml</dc:format>
        <dc:type
           rdf:resource="http://purl.org/dc/dcmitype/StillImage" />
        <dc:title></dc:title>
      </cc:Work>
    </rdf:RDF>
  </metadata>
  <g
     id="layer1"
     inkscape:groupmode="layer"
     inkscape:label="Layer 1">
    <rect
       style="fill:#1c1c1c;stroke-width:3.47907;stroke-linecap:round;paint-order:markers stroke fill;fill-opacity:1"
       id="rect848"
       width="67.733337"
       height="33.866669"
       x="-1.7011719e-06"
       y="-8.5058593e-07" />
    <g
       fill="none"
       fill-rule="evenodd"
       id="g885"
       transform="matrix(0.21166667,0,0,0.21166667,21.166667,4.2333333)"
       style="stroke-width:1.25">
      <circle
         fill="#ffffff"
         cx="60"
         cy="60"
         r="57.5"
         id="circle846"
         style="stroke-width:1.5625" />
      <ellipse
         fill="#de5833"
         cx="60"
         cy="60"
         id="ellipse848"
         r="50.25"
         style="stroke-width:1.5625" />
      <path
         d="M 60,120 C 26.917,120 0,93.083 0,60 0,26.917 26.917,0 60,0 c 33.083,0 60,26.917 60,60 0,33.083 -26.917,60 -60,60 z M 60,4.917 C 29.667,4.917 4.917,29.583 4.917,60 4.917,90.333 29.583,115.083 60,115.083 90.417,115.083 115.083,90.417 115.083,60 115.083,29.667 90.333,4.917 60,4.917 Z"
         fill="#de5833"
         id="path850-3"
         style="stroke-width:1.5625" />
      <g
         transform="translate(9.167,9.167)"
         id="g877"
         style="stroke-width:1.25">
        <mask
           id="b"
           fill="#ffffff">
          <use
             xlink:href="#a"
             id="use852"
             x="0"
             y="0"
             width="100%"
             height="100%" />
        </mask>
        <use
           fill="#de5833"
           xlink:href="#a"
           id="use855"
           x="0"
           y="0"
           width="100%"
           height="100%"
           style="stroke-width:1.5625" />
        <g
           mask="url(#b)"
           id="g875"
           style="stroke-width:1.25">
          <path
             d="M 71.917,127.25 C 70.167,119 59.667,100.083 55.583,92.167 51.667,84.25 47.667,73.083 49.5,65.75 c 0.417,-1.417 -3.333,-11.417 -2.333,-12 8.5,-5.5 10.666,0.583 14,-1.75 1.75,-1.167 4.166,1 4.75,-1 C 68.083,43.333 63,30.083 57.083,24.417 c -2,-2 -4.75,-3.167 -8.083,-3.75 -1.167,-1.75 -3.333,-3.334 -6.083,-4.917 -3.167,-1.75 -10.25,-3.917 -13.834,-4.5 -2.583,-0.417 -3.166,0.167 -4.166,0.417 1,0 5.75,2.333 6.666,2.583 -1,0.583 -3.583,0 -5.333,0.75 -0.75,0.417 -1.583,2 -1.583,2.583 4.916,-0.583 12.583,0 17.166,2 C 38.25,20 32.75,20.333 30.417,21.75 23.5,25.333 20.583,33.75 22.333,44 c 1.75,10.083 9.834,47.083 12.25,59.333 2.584,12.25 -5.5,20.334 -10.416,22.5 l 5.5,0.417 -1.75,3.917 c 6.5,0.75 13.833,-1.417 13.833,-1.417 -1.417,3.917 -11.25,5.5 -11.25,5.5 0,0 4.75,1.417 12.25,-1.417 7.667,-2.916 12.25,-4.75 12.25,-4.75 l 7.5,9.417 2.917,-6.917 6.916,7.25 c -0.25,-0.5 1.334,-2.25 -0.416,-10.583 z"
             fill="#d5d7d8"
             id="path857"
             style="stroke-width:1.5625" />
          <path
             d="M 74.083,125.5 C 72.333,117.25 61.833,98.333 57.75,90.417 53.833,82.5 49.833,71.333 51.667,64 52.083,62.583 52.083,57.333 53.083,56.5 61.583,51 61,56.333 64.333,53.917 66.083,52.75 67.5,51.167 68.083,49 70.25,41.333 65.167,28.083 59.25,22.417 c -2,-2 -4.75,-3.167 -8.083,-3.75 C 50,16.917 47.833,15.333 45.083,13.75 39.75,10.833 33.083,9.833 26.75,10.833 c 1,0 3.333,2.167 4.167,2.334 -1.417,1 -5.084,0.75 -5.084,2.916 4.917,-0.416 10.25,0.167 15,2.334 C 37.25,18.833 33.917,19.833 31.583,21 24.667,24.583 22.917,31.833 24.667,41.917 26.417,52 34.5,89 36.917,101.25 39.5,113.5 31.417,121.583 26.5,123.75 l 5.5,0.417 -1.75,3.916 c 6.5,0.75 13.833,-1.416 13.833,-1.416 -1.416,3.916 -11.25,5.5 -11.25,5.5 0,0 4.75,1.416 12.25,-1.417 7.667,-2.917 12.25,-4.75 12.25,-4.75 l 3.584,9.417 6.916,-6.917 2.917,7.25 c -0.417,0 5.083,-1.75 3.333,-10.25 z"
             fill="#ffffff"
             id="path859"
             style="stroke-width:1.5625" />
          <path
             d="m 32.5,42.583 c 0,-2.166 1.75,-3.75 3.75,-3.75 2.167,0 3.75,1.75 3.75,3.75 0,2.167 -1.75,3.75 -3.75,3.75 -2.167,0 -3.75,-1.583 -3.75,-3.75 z"
             fill="#2d4f8e"
             id="path861"
             style="stroke-width:1.5625" />
          <path
             d="m 36.833,41.167 c 0,-0.584 0.417,-1 1,-1 0.584,0 1,0.416 1,1 0,0.583 -0.416,1 -1,1 -0.416,0 -1,-0.417 -1,-1 z"
             fill="#ffffff"
             id="path863"
             style="stroke-width:1.5625" />
          <path
             d="m 58.333,40.167 c 0,-1.75 1.417,-3.334 3.334,-3.334 1.75,0 3.333,1.417 3.333,3.334 0,1.75 -1.417,3.333 -3.333,3.333 -1.75,0.083 -3.334,-1.333 -3.334,-3.333 z"
             fill="#2d4f8e"
             id="path865"
             style="stroke-width:1.5625" />
          <path
             d="m 62.25,39.167 c 0,-0.417 0.417,-0.75 0.75,-0.75 0.417,0 0.75,0.416 0.75,0.75 0,0.416 -0.417,0.75 -0.75,0.75 -0.333,0.083 -0.75,-0.334 -0.75,-0.75 z"
             fill="#ffffff"
             id="path867"
             style="stroke-width:1.5625" />
          <path
             d="m 15.583,21.5 c 0,0 -2.916,-1.417 -5.75,0.417 -2.75,1.75 -2.75,3.583 -2.75,3.583 0,0 -1.583,-3.333 2.334,-4.917 C 13.833,19 15.583,21.5 15.583,21.5 Z"
             fill="url(#c)"
             transform="translate(21.667,10)"
             id="path869"
             style="fill:url(#c);stroke-width:1.5625" />
          <path
             d="m 42,21.333 c 0,0 -2,-1.166 -3.75,-1.166 -3.333,0 -4.167,1.583 -4.167,1.583 0,0 0.584,-3.583 4.75,-2.75 2.334,0.167 3.167,2.333 3.167,2.333 z"
             fill="url(#d)"
             transform="translate(21.667,10)"
             id="path871"
             style="fill:url(#d);stroke-width:1.5625" />
          <path
             d="m 47.917,57.167 c 0.416,-2.334 6.333,-6.667 10.416,-6.917 4.167,-0.167 5.5,-0.167 9.084,-1 C 71,48.5 80,46.083 82.583,44.917 85.167,43.75 95.75,45.5 88.333,49.667 85.167,51.417 76.333,54.75 70,56.75 63.667,58.5 59.917,55 58,58.167 c -1.583,2.333 -0.417,5.75 7.083,6.5 10.084,1 19.667,-4.5 20.667,-1.584 1,2.917 -8.667,6.5 -14.583,6.667 C 65.25,69.917 53.25,65.833 51.5,64.667 49.667,63.083 47.25,60.25 47.917,57.167 Z"
             fill="#fdd20a"
             id="path873"
             style="stroke-width:1.5625" />
        </g>
      </g>
      <path
         d="m 61.583,94.917 c 0,0 -14.166,-7.5 -14.416,-4.5 -0.167,3.166 0,15.583 1.583,16.583 1.583,1 13.417,-6.083 13.417,-6.083 z m 5.5,-0.667 c 0,0 9.667,-7.25 11.834,-6.917 2.166,0.417 2.583,15.584 0.75,16.334 -1.917,0.833 -13,-3.667 -13,-3.667 z"
         fill="#65bc46"
         id="path879"
         style="stroke-width:1.5625" />
      <path
         d="m 58.25,95.667 c 0,4.916 -0.75,7.083 1.417,7.5 2.166,0.416 6.083,0 7.5,-1 1.416,-1 0.166,-7.25 -0.167,-8.5 -0.667,-1.167 -8.75,-0.167 -8.75,2 z"
         fill="#43a244"
         id="path881"
         style="stroke-width:1.5625" />
      <path
         d="m 59,94.5 c 0,4.917 -0.75,7.083 1.417,7.5 2.166,0.417 6.083,0 7.5,-1 1.416,-1 0.166,-7.25 -0.167,-8.5 -0.5,-1 -8.75,-0.167 -8.75,2 z"
         fill="#65bc46"
         id="path883"
         style="stroke-width:1.5625" />
    </g>
  </g>
</svg>
