<?xml version="1.0" encoding="UTF-8" standalone="no"?>
<svg
   xmlns:dc="http://purl.org/dc/elements/1.1/"
   xmlns:cc="http://creativecommons.org/ns#"
   xmlns:rdf="http://www.w3.org/1999/02/22-rdf-syntax-ns#"
   xmlns:svg="http://www.w3.org/2000/svg"
   xmlns="http://www.w3.org/2000/svg"
   xmlns:sodipodi="http://sodipodi.sourceforge.net/DTD/sodipodi-0.dtd"
   xmlns:inkscape="http://www.inkscape.org/namespaces/inkscape"
   inkscape:version="1.0.1 (3bc2e813f5, 2020-09-07)"
   id="svg8"
   version="1.1"
   viewBox="0 0 67.733332 33.866668"
   height="128"
   width="256"
   sodipodi:docname="gitlab.svg">
  <defs
     id="defs2">
	
	
</defs>
  <sodipodi:namedview
     units="px"
     showgrid="false"
     inkscape:document-rotation="0"
     inkscape:current-layer="layer1"
     inkscape:document-units="px"
     inkscape:cy="63.181217"
     inkscape:cx="177.87181"
     inkscape:zoom="5.12"
     inkscape:pageshadow="2"
     inkscape:pageopacity="0"
     borderopacity="1.0"
     bordercolor="#666666"
     pagecolor="#ffffff"
     id="base"
     inkscape:window-width="2560"
     inkscape:window-height="1376"
     inkscape:window-x="0"
     inkscape:window-y="0"
     inkscape:window-maximized="1" />
  <metadata
     id="metadata5">
    <rdf:RDF>
      <cc:Work
         rdf:about="">
        <dc:format>image/svg+xml</dc:format>
        <dc:type
           rdf:resource="http://purl.org/dc/dcmitype/StillImage" />
        <dc:title></dc:title>
      </cc:Work>
    </rdf:RDF>
  </metadata>
  <g
     id="layer1"
     inkscape:groupmode="layer"
     inkscape:label="Layer 1">
    <rect
       style="fill:#3d3846;stroke-width:3.47907;stroke-linecap:round;paint-order:markers stroke fill"
       id="rect848"
       width="67.733337"
       height="33.866669"
       x="-1.7011719e-06"
       y="-8.5058593e-07" />
    <g
       id="Group"
       style="fill:none;fill-rule:evenodd;stroke:none;stroke-width:1"
       transform="matrix(0.12103643,0,0,0.12103643,21.150404,5.1927892)">
      <path
         d="m 105.0614,193.655 v 0 l 38.64,-118.921 h -77.28 z"
         id="Fill-4"
         fill="#e24329" />
      <path
         id="Fill-6"
         fill="#fc6d26"
         d="" />
      <path
         d="M 105.0614,193.6548 66.4214,74.7338 H 12.2684 Z"
         id="Fill-8"
         fill="#fc6d26" />
      <path
         id="Fill-10"
         fill="#fc6d26"
         d="" />
      <path
         d="m 12.2685,74.7341 v 0 l -11.742,36.139 c -1.071,3.296 0.102,6.907 2.906,8.944 l 101.629,73.838 z"
         id="Fill-12"
         fill="#fca326" />
      <path
         id="Fill-14"
         fill="#fc6d26"
         d="" />
      <path
         d="m 12.2685,74.7342 h 54.153 L 43.1485,3.1092 c -1.197,-3.686 -6.411,-3.685 -7.608,0 z"
         id="Fill-16"
         fill="#e24329" />
      <path
         d="m 105.0614,193.6548 38.64,-118.921 h 54.153 z"
         id="Fill-18"
         fill="#fc6d26" />
      <path
         d="m 197.8544,74.7341 v 0 l 11.742,36.139 c 1.071,3.296 -0.102,6.907 -2.906,8.944 l -101.629,73.838 z"
         id="Fill-20"
         fill="#fca326" />
      <path
         d="m 197.8544,74.7342 h -54.153 l 23.273,-71.625 c 1.197,-3.686 6.411,-3.685 7.608,0 z"
         id="Fill-22"
         fill="#e24329" />
    </g>
  </g>
</svg>
