<?xml version="1.0" encoding="UTF-8" standalone="no"?>
<svg
   xmlns:dc="http://purl.org/dc/elements/1.1/"
   xmlns:cc="http://creativecommons.org/ns#"
   xmlns:rdf="http://www.w3.org/1999/02/22-rdf-syntax-ns#"
   xmlns:svg="http://www.w3.org/2000/svg"
   xmlns="http://www.w3.org/2000/svg"
   xmlns:sodipodi="http://sodipodi.sourceforge.net/DTD/sodipodi-0.dtd"
   xmlns:inkscape="http://www.inkscape.org/namespaces/inkscape"
   inkscape:version="1.0.1 (3bc2e813f5, 2020-09-07, custom)"
   id="svg8"
   version="1.1"
   viewBox="0 0 67.733332 33.866668"
   height="128"
   width="256"
   sodipodi:docname="googledrive.svg">
  <defs
     id="defs2"><linearGradient
   id="linearGradient1305"
   gradientUnits="userSpaceOnUse"
   x1="931.36255"
   y1="200.44926"
   x2="198.927"
   y2="136.6676"
   gradientTransform="matrix(0.26458334,0,0,0.26458334,-61.80137,-151.00339)">
		<stop
   offset="0"
   style="stop-color:#20489b;stop-opacity:1"
   id="stop1301" />

		
		
		
		<stop
   offset="1"
   style="stop-color:#030a2a;stop-opacity:1"
   id="stop1303" />

	</linearGradient>

	

		
		
		
		
		
		
		
		
		
		
		
		
		
		
		
		
	
	
	<linearGradient
   id="SVGID_1_"
   gradientUnits="userSpaceOnUse"
   x1="931.36255"
   y1="200.44926"
   x2="198.927"
   y2="136.6676"
   gradientTransform="matrix(0.26458334,0,0,0.26458334,-61.80137,-151.00339)">
		<stop
   offset="0"
   style="stop-color:#101c50;stop-opacity:0"
   id="stop1187" />

		
		
		
		<stop
   offset="1"
   style="stop-color:#0cfefe;stop-opacity:1"
   id="stop1195" />

	</linearGradient>

	
</defs>
  <sodipodi:namedview
     units="px"
     showgrid="false"
     inkscape:document-rotation="0"
     inkscape:current-layer="layer1"
     inkscape:document-units="px"
     inkscape:cy="44.814511"
     inkscape:cx="132.68353"
     inkscape:zoom="3.959798"
     inkscape:pageshadow="2"
     inkscape:pageopacity="0"
     borderopacity="1.0"
     bordercolor="#666666"
     pagecolor="#5d5d5d"
     id="base"
     inkscape:window-width="2560"
     inkscape:window-height="1376"
     inkscape:window-x="0"
     inkscape:window-y="0"
     inkscape:window-maximized="1"
     inkscape:snap-bbox="true"
     inkscape:snap-bbox-edge-midpoints="true" />
  <metadata
     id="metadata5">
    <rdf:RDF>
      <cc:Work
         rdf:about="">
        <dc:format>image/svg+xml</dc:format>
        <dc:type
           rdf:resource="http://purl.org/dc/dcmitype/StillImage" />
        <dc:title></dc:title>
      </cc:Work>
    </rdf:RDF>
  </metadata>
  <g
     id="layer1"
     inkscape:groupmode="layer"
     inkscape:label="Layer 1">
    <rect
       style="fill:#f6f5f4;stroke-width:3.47907;stroke-linecap:round;paint-order:markers stroke fill;fill-opacity:1"
       id="rect848"
       width="67.733337"
       height="33.866669"
       x="-1.7011719e-06"
       y="-8.5058593e-07" />
    <g
       id="g1333"
       transform="matrix(0.29095075,0,0,0.29095075,21.166667,5.5862542)"
       style="stroke-width:0.909375">
      <path
         d="m 6.6,66.85 3.85,6.65 c 0.8,1.4 1.95,2.5 3.3,3.3 L 27.5,53 H 0 c 0,1.55 0.4,3.1 1.2,4.5 z"
         fill="#0066da"
         id="path1307"
         style="stroke-width:0.826963" />
      <path
         d="M 43.65,25 29.9,1.2 C 28.55,2 27.4,3.1 26.6,4.5 L 1.2,48.5 A 9.06,9.06 0 0 0 0,53 h 27.5 z"
         fill="#00ac47"
         id="path1309"
         style="stroke-width:0.826963" />
      <path
         d="m 73.55,76.8 c 1.35,-0.8 2.5,-1.9 3.3,-3.3 l 1.6,-2.75 7.65,-13.25 c 0.8,-1.4 1.2,-2.95 1.2,-4.5 H 59.798 l 5.852,11.5 z"
         fill="#ea4335"
         id="path1311"
         style="stroke-width:0.826963" />
      <path
         d="M 43.65,25 57.4,1.2 C 56.05,0.4 54.5,0 52.9,0 H 34.4 c -1.6,0 -3.15,0.45 -4.5,1.2 z"
         fill="#00832d"
         id="path1313"
         style="stroke-width:0.826963" />
      <path
         d="M 59.8,53 H 27.5 L 13.75,76.8 c 1.35,0.8 2.9,1.2 4.5,1.2 h 50.8 c 1.6,0 3.15,-0.45 4.5,-1.2 z"
         fill="#2684fc"
         id="path1315"
         style="stroke-width:0.826963" />
      <path
         d="M 73.4,26.5 60.7,4.5 C 59.9,3.1 58.75,2 57.4,1.2 L 43.65,25 59.8,53 h 27.45 c 0,-1.55 -0.4,-3.1 -1.2,-4.5 z"
         fill="#ffba00"
         id="path1317"
         style="stroke-width:0.826963" />
    </g>
  </g>
</svg>
