<?xml version="1.0" encoding="UTF-8" standalone="no"?>
<svg
   xmlns:dc="http://purl.org/dc/elements/1.1/"
   xmlns:cc="http://creativecommons.org/ns#"
   xmlns:rdf="http://www.w3.org/1999/02/22-rdf-syntax-ns#"
   xmlns:svg="http://www.w3.org/2000/svg"
   xmlns="http://www.w3.org/2000/svg"
   xmlns:xlink="http://www.w3.org/1999/xlink"
   xmlns:sodipodi="http://sodipodi.sourceforge.net/DTD/sodipodi-0.dtd"
   xmlns:inkscape="http://www.inkscape.org/namespaces/inkscape"
   inkscape:version="1.0.1 (3bc2e813f5, 2020-09-07)"
   id="svg8"
   version="1.1"
   viewBox="0 0 67.733332 33.866668"
   height="128"
   width="256"
   sodipodi:docname="indieweb.svg">
  <defs
     id="defs2">
    <rect
       id="SVGID_1_"
       x="-2.518"
       y="35.699"
       width="150.518"
       height="71.534" />
  </defs>
  <sodipodi:namedview
     units="px"
     showgrid="false"
     inkscape:document-rotation="0"
     inkscape:current-layer="layer1"
     inkscape:document-units="px"
     inkscape:cy="74.312"
     inkscape:cx="125.60654"
     inkscape:zoom="3.959798"
     inkscape:pageshadow="2"
     inkscape:pageopacity="0"
     borderopacity="1.0"
     bordercolor="#666666"
     pagecolor="#ffffff"
     id="base"
     inkscape:window-width="2560"
     inkscape:window-height="1376"
     inkscape:window-x="0"
     inkscape:window-y="0"
     inkscape:window-maximized="1" />
  <metadata
     id="metadata5">
    <rdf:RDF>
      <cc:Work
         rdf:about="">
        <dc:format>image/svg+xml</dc:format>
        <dc:type
           rdf:resource="http://purl.org/dc/dcmitype/StillImage" />
        <dc:title></dc:title>
      </cc:Work>
    </rdf:RDF>
  </metadata>
  <g
     id="layer1"
     inkscape:groupmode="layer"
     inkscape:label="Layer 1">
    <rect
       style="fill:#ffeebb;stroke-width:3.47907;stroke-linecap:round;paint-order:markers stroke fill;fill-opacity:1"
       id="rect848"
       width="67.733337"
       height="33.866669"
       x="-1.7011719e-06"
       y="-8.5058593e-07" />
    <g
       id="g911"
       transform="matrix(0.1956284,0,0,0.1956284,19.665219,3.0934067)">
      <polygon
         fill="#ff5c00"
         points="66.37,84.885 72.13,72.583 59.684,45.892 48.113,45.892 "
         id="polygon838" />
      <polygon
         fill="#ff5c00"
         points="82.111,84.885 100.369,45.892 84.627,45.892 63.903,45.892 75.902,71.625 "
         id="polygon840" />
      <rect
         x="7.6750002"
         y="45.891998"
         fill="#ff0000"
         width="36.418999"
         height="10.194"
         id="rect842" />
      <rect
         x="7.6750002"
         y="59.804001"
         fill="#ff0000"
         width="36.418999"
         height="22.183001"
         id="rect844" />
      <g
         id="g878">
	<defs
   id="defs847">
		<rect
   id="rect892"
   x="-2.5179999"
   y="35.699001"
   width="150.51801"
   height="71.533997" />

	</defs>

	<clipPath
   id="SVGID_2_">
		<use
   xlink:href="#SVGID_1_"
   overflow="visible"
   id="use849"
   x="0"
   y="0"
   width="100%"
   height="100%" />

	</clipPath>

	<path
   clip-path="url(#SVGID_2_)"
   fill="#ffb100"
   d="m 137.513,65.959 c -0.942,10.018 -9.374,17.858 -19.635,17.858 -10.892,0 -19.72,-8.834 -19.72,-19.73 0,-10.897 8.828,-19.731 19.72,-19.731 10.233,0 18.647,7.799 19.627,17.78 h -19.618 c -1.056,0 -1.912,0.855 -1.912,1.912 0,1.055 0.856,1.912 1.912,1.912 h 19.626 z"
   id="path852" />

	<rect
   x="7.8169999"
   y="89.555"
   clip-path="url(#SVGID_2_)"
   fill="#666666"
   width="1.3150001"
   height="7.4829998"
   id="rect854" />

	<polygon
   clip-path="url(#SVGID_2_)"
   fill="#666666"
   points="15.653,89.523 15.728,89.491 20.453,94.12 20.453,89.555 21.768,89.555 21.768,97.071 21.693,97.104 16.968,92.506 16.968,97.038 15.653,97.038 "
   id="polygon856" />

	<path
   clip-path="url(#SVGID_2_)"
   fill="#666666"
   d="m 27.433,97.038 v -7.483 h 2.619 c 2.854,0 3.699,2.171 3.699,3.73 0,1.604 -0.845,3.753 -3.699,3.753 z m 2.618,-1.176 c 2.063,0 2.373,-1.914 2.373,-2.577 0,-0.651 -0.31,-2.564 -2.373,-2.564 h -1.326 v 5.142 h 1.326 z"
   id="path858" />

	<rect
   x="39.414001"
   y="89.555"
   clip-path="url(#SVGID_2_)"
   fill="#666666"
   width="1.3150001"
   height="7.4829998"
   id="rect860" />

	<polygon
   clip-path="url(#SVGID_2_)"
   fill="#666666"
   points="48.34,92.763 51.237,92.763 51.237,93.938 48.34,93.938 48.34,95.862 52.04,95.862 52.04,97.038 47.037,97.038 47.037,89.555 52.04,89.555 52.04,90.731 48.34,90.731 "
   id="polygon862" />

	<polygon
   clip-path="url(#SVGID_2_)"
   fill="#444444"
   points="67.1,89.555 68.555,89.555 65.133,97.104 65.037,97.104 62.962,92.452 60.901,97.104 60.804,97.104 57.382,89.555 58.836,89.555 60.857,94.312 62.91,89.416 63.017,89.416 65.08,94.312 "
   id="polygon864" />

	<polygon
   clip-path="url(#SVGID_2_)"
   fill="#444444"
   points="74.347,92.763 77.244,92.763 77.244,93.938 74.347,93.938 74.347,95.862 78.045,95.862 78.045,97.038 73.042,97.038 73.042,89.555 78.045,89.555 78.045,90.731 74.347,90.731 "
   id="polygon866" />

	<path
   clip-path="url(#SVGID_2_)"
   fill="#444444"
   d="m 88.66,93.285 c 0.608,0.257 0.919,0.995 0.919,1.583 0,0.898 -0.62,2.17 -2.64,2.17 h -2.801 v -7.483 h 2.801 c 2.02,0 2.64,1.272 2.64,2.181 0,0.609 -0.311,1.293 -0.919,1.549 m -1.572,-0.533 c 0.982,-0.032 1.155,-0.716 1.155,-1.017 0,-0.245 -0.173,-1.015 -1.197,-1.015 h -1.615 v 2.031 h 1.657 z m -0.042,3.11 c 1.024,0 1.197,-0.748 1.197,-0.994 0,-0.342 -0.173,-0.898 -1.155,-0.93 h -1.657 v 1.924 z"
   id="path868" />

	<path
   clip-path="url(#SVGID_2_)"
   fill="#666666"
   d="m 100.921,91.586 c -0.396,-0.492 -1.198,-0.94 -1.968,-0.94 -2.085,0 -2.384,1.988 -2.384,2.64 0,0.653 0.299,2.642 2.384,2.642 0.79,0 1.581,-0.471 2.062,-0.93 l 0.76,0.95 c -0.729,0.729 -1.615,1.188 -2.822,1.188 -2.866,0 -3.709,-2.245 -3.709,-3.85 0,-1.56 0.854,-3.838 3.709,-3.838 1.293,0 2.138,0.515 2.844,1.305 z"
   id="path870" />

	<path
   clip-path="url(#SVGID_2_)"
   fill="#666666"
   d="m 112.581,97.038 h -1.452 l -0.791,-1.914 h -2.449 l -0.791,1.914 h -1.454 l 3.421,-7.547 h 0.098 z m -4.244,-3.003 h 1.55 l -0.77,-1.872 z"
   id="path872" />

	<polygon
   clip-path="url(#SVGID_2_)"
   fill="#666666"
   points="125.793,97.038 124.394,97.038 122.961,92.709 120.792,97.135 120.685,97.135 118.514,92.709 117.082,97.038 115.682,97.038 118.333,89.459 118.428,89.459 120.738,94.558 123.046,89.459 123.143,89.459 "
   id="polygon874" />

	<path
   clip-path="url(#SVGID_2_)"
   fill="#666666"
   d="m 131.811,97.038 h -1.314 v -7.483 h 2.822 c 2.021,0 2.64,1.411 2.64,2.385 0,1.453 -1.282,2.416 -2.49,2.416 h -1.657 v 2.682 z m 1.603,-3.88 c 0.995,-0.033 1.231,-0.823 1.231,-1.219 0,-0.418 -0.226,-1.219 -1.273,-1.219 h -1.561 v 2.438 z"
   id="path876" />

</g>
    </g>
  </g>
</svg>
