<?xml version="1.0" encoding="UTF-8" standalone="no"?>
<svg
   xmlns:dc="http://purl.org/dc/elements/1.1/"
   xmlns:cc="http://creativecommons.org/ns#"
   xmlns:rdf="http://www.w3.org/1999/02/22-rdf-syntax-ns#"
   xmlns:svg="http://www.w3.org/2000/svg"
   xmlns="http://www.w3.org/2000/svg"
   xmlns:xlink="http://www.w3.org/1999/xlink"
   xmlns:sodipodi="http://sodipodi.sourceforge.net/DTD/sodipodi-0.dtd"
   xmlns:inkscape="http://www.inkscape.org/namespaces/inkscape"
   inkscape:version="1.0.1 (3bc2e813f5, 2020-09-07)"
   id="svg8"
   version="1.1"
   viewBox="0 0 67.733332 33.866668"
   height="128"
   width="256"
   sodipodi:docname="instagram.svg">
  <defs
     id="defs2">
    <linearGradient
       inkscape:collect="always"
       xlink:href="#SVGID_1_"
       id="linearGradient1030"
       x1="67.733337"
       y1="33.866669"
       x2="-1.7011719e-06"
       y2="-8.5058593e-07"
       gradientUnits="userSpaceOnUse" />
  </defs>
  <sodipodi:namedview
     units="px"
     showgrid="false"
     inkscape:document-rotation="0"
     inkscape:current-layer="layer1"
     inkscape:document-units="px"
     inkscape:cy="104.02721"
     inkscape:cx="126.23563"
     inkscape:zoom="3.959798"
     inkscape:pageshadow="2"
     inkscape:pageopacity="0"
     borderopacity="1.0"
     bordercolor="#666666"
     pagecolor="#ffffff"
     id="base"
     inkscape:window-width="2560"
     inkscape:window-height="1376"
     inkscape:window-x="0"
     inkscape:window-y="0"
     inkscape:window-maximized="1" />
  <metadata
     id="metadata5">
    <rdf:RDF>
      <cc:Work
         rdf:about="">
        <dc:format>image/svg+xml</dc:format>
        <dc:type
           rdf:resource="http://purl.org/dc/dcmitype/StillImage" />
        <dc:title></dc:title>
      </cc:Work>
    </rdf:RDF>
  </metadata>
  <g
     id="layer1"
     inkscape:groupmode="layer"
     inkscape:label="Layer 1">
    <rect
       style="fill:url(#linearGradient1030);stroke-width:3.47907;stroke-linecap:round;paint-order:markers stroke fill;fill-opacity:1"
       id="rect848"
       width="67.733337"
       height="33.866669"
       x="-1.7011719e-06"
       y="-8.5058593e-07" />
    <g
       id="g1022"
       transform="matrix(0.04609516,0,0,0.04609516,21.166667,4.2333333)"
       style="fill:#ffffff;stroke-width:5.73994">
      <g
         id="g949"
         style="fill:#ffffff;stroke-width:5.73994">
	
		<linearGradient
   id="SVGID_1_"
   gradientUnits="userSpaceOnUse"
   x1="275.517"
   y1="4.5700002"
   x2="275.517"
   y2="549.71997"
   gradientTransform="matrix(1,0,0,-1,0,554)">
		<stop
   offset="0"
   style="stop-color:#E09B3D"
   id="stop916" />

		<stop
   offset="0.3"
   style="stop-color:#C74C4D"
   id="stop918" />

		<stop
   offset="0.6"
   style="stop-color:#C21975"
   id="stop920" />

		<stop
   offset="1"
   style="stop-color:#7024C4"
   id="stop922" />

	</linearGradient>

	<path
   style="fill:#ffffff;stroke-width:5.73994"
   d="M 386.878,0 H 164.156 C 73.64,0 0,73.64 0,164.156 v 222.722 c 0,90.516 73.64,164.156 164.156,164.156 h 222.722 c 90.516,0 164.156,-73.64 164.156,-164.156 V 164.156 C 551.033,73.64 477.393,0 386.878,0 Z M 495.6,386.878 C 495.6,446.923 446.923,495.6 386.878,495.6 H 164.156 C 104.111,495.6 55.434,446.923 55.434,386.878 V 164.156 c 0,-60.046 48.677,-108.722 108.722,-108.722 h 222.722 c 60.045,0 108.722,48.676 108.722,108.722 z"
   id="path925" />

	
		<linearGradient
   id="SVGID_2_"
   gradientUnits="userSpaceOnUse"
   x1="275.517"
   y1="4.5700002"
   x2="275.517"
   y2="549.71997"
   gradientTransform="matrix(1,0,0,-1,0,554)">
		<stop
   offset="0"
   style="stop-color:#E09B3D"
   id="stop927" />

		<stop
   offset="0.3"
   style="stop-color:#C74C4D"
   id="stop929" />

		<stop
   offset="0.6"
   style="stop-color:#C21975"
   id="stop931" />

		<stop
   offset="1"
   style="stop-color:#7024C4"
   id="stop933" />

	</linearGradient>

	<path
   style="fill:#ffffff;stroke-width:5.73994"
   d="M 275.517,133 C 196.933,133 133,196.933 133,275.516 c 0,78.583 63.933,142.517 142.517,142.517 78.584,0 142.517,-63.933 142.517,-142.517 C 418.034,196.932 354.101,133 275.517,133 Z m 0,229.6 c -48.095,0 -87.083,-38.988 -87.083,-87.083 0,-48.095 38.989,-87.083 87.083,-87.083 48.095,0 87.083,38.988 87.083,87.083 0,48.094 -38.989,87.083 -87.083,87.083 z"
   id="path936" />

	
		<linearGradient
   id="SVGID_3_"
   gradientUnits="userSpaceOnUse"
   x1="418.31"
   y1="4.5700002"
   x2="418.31"
   y2="549.71997"
   gradientTransform="matrix(1,0,0,-1,0,554)">
		<stop
   offset="0"
   style="stop-color:#E09B3D"
   id="stop938" />

		<stop
   offset="0.3"
   style="stop-color:#C74C4D"
   id="stop940" />

		<stop
   offset="0.6"
   style="stop-color:#C21975"
   id="stop942" />

		<stop
   offset="1"
   style="stop-color:#7024C4"
   id="stop944" />

	</linearGradient>

	<circle
   style="fill:#ffffff;stroke-width:5.73994"
   cx="418.31"
   cy="134.07001"
   r="34.150002"
   id="circle947" />

</g>
      <g
         id="g951"
         style="fill:#ffffff;stroke-width:5.73994">
</g>
      <g
         id="g953"
         style="fill:#ffffff;stroke-width:5.73994">
</g>
      <g
         id="g955"
         style="fill:#ffffff;stroke-width:5.73994">
</g>
      <g
         id="g957"
         style="fill:#ffffff;stroke-width:5.73994">
</g>
      <g
         id="g959"
         style="fill:#ffffff;stroke-width:5.73994">
</g>
      <g
         id="g961"
         style="fill:#ffffff;stroke-width:5.73994">
</g>
      <g
         id="g963"
         style="fill:#ffffff;stroke-width:5.73994">
</g>
      <g
         id="g965"
         style="fill:#ffffff;stroke-width:5.73994">
</g>
      <g
         id="g967"
         style="fill:#ffffff;stroke-width:5.73994">
</g>
      <g
         id="g969"
         style="fill:#ffffff;stroke-width:5.73994">
</g>
      <g
         id="g971"
         style="fill:#ffffff;stroke-width:5.73994">
</g>
      <g
         id="g973"
         style="fill:#ffffff;stroke-width:5.73994">
</g>
      <g
         id="g975"
         style="fill:#ffffff;stroke-width:5.73994">
</g>
      <g
         id="g977"
         style="fill:#ffffff;stroke-width:5.73994">
</g>
      <g
         id="g979"
         style="fill:#ffffff;stroke-width:5.73994">
</g>
    </g>
  </g>
</svg>
