<?xml version="1.0" encoding="UTF-8" standalone="no"?>
<svg
   xmlns:dc="http://purl.org/dc/elements/1.1/"
   xmlns:cc="http://creativecommons.org/ns#"
   xmlns:rdf="http://www.w3.org/1999/02/22-rdf-syntax-ns#"
   xmlns:svg="http://www.w3.org/2000/svg"
   xmlns="http://www.w3.org/2000/svg"
   xmlns:sodipodi="http://sodipodi.sourceforge.net/DTD/sodipodi-0.dtd"
   xmlns:inkscape="http://www.inkscape.org/namespaces/inkscape"
   inkscape:version="1.0.1 (3bc2e813f5, 2020-09-07, custom)"
   id="svg8"
   version="1.1"
   viewBox="0 0 67.733332 33.866668"
   height="128"
   width="256"
   sodipodi:docname="mastodon.svg">
  <defs
     id="defs2" />
  <sodipodi:namedview
     units="px"
     showgrid="false"
     inkscape:document-rotation="0"
     inkscape:current-layer="layer1"
     inkscape:document-units="px"
     inkscape:cy="71.698625"
     inkscape:cx="268.37336"
     inkscape:zoom="1.979899"
     inkscape:pageshadow="2"
     inkscape:pageopacity="0"
     borderopacity="1.0"
     bordercolor="#666666"
     pagecolor="#ffffff"
     id="base"
     inkscape:window-width="2560"
     inkscape:window-height="1403"
     inkscape:window-x="0"
     inkscape:window-y="0"
     inkscape:window-maximized="1" />
  <metadata
     id="metadata5">
    <rdf:RDF>
      <cc:Work
         rdf:about="">
        <dc:format>image/svg+xml</dc:format>
        <dc:type
           rdf:resource="http://purl.org/dc/dcmitype/StillImage" />
        <dc:title></dc:title>
      </cc:Work>
    </rdf:RDF>
  </metadata>
  <g
     id="layer1"
     inkscape:groupmode="layer"
     inkscape:label="Layer 1">
    <rect
       style="fill:#2b90d9;stroke-width:3.47907;stroke-linecap:round;paint-order:markers stroke fill;fill-opacity:1"
       id="rect848"
       width="67.733337"
       height="33.866669"
       x="-1.7011719e-06"
       y="-8.5058593e-07" />
    <path
       id="path833"
       style="fill:#ffffff;stroke-width:0.282223"
       d="m 33.829207,4.2333331 c -3.247253,0.026548 -6.370858,0.378186 -8.191203,1.2141868 0,0 -3.610087,1.6149294 -3.610087,7.1249561 0,1.261734 -0.02472,2.770348 0.01523,4.370232 0.131099,5.388506 0.988035,10.699325 5.970104,12.017987 2.297122,0.608013 4.269258,0.735197 5.857646,0.647888 2.880503,-0.159702 4.497524,-1.02796 4.497524,-1.02796 l -0.09502,-2.089997 c 0,0 -2.058468,0.649006 -4.370232,0.569908 -2.290416,-0.07855 -4.708413,-0.246944 -5.078859,-3.059023 -0.03421,-0.247008 -0.05132,-0.511019 -0.05132,-0.788409 0,0 2.248464,0.549408 5.097902,0.67996 1.742343,0.07992 3.376411,-0.10207 5.03596,-0.300088 3.182525,-0.380026 5.95339,-2.340942 6.301666,-4.132687 0.548759,-2.822479 0.503556,-6.887811 0.503556,-6.887811 0,-5.5100267 -3.610087,-7.1249561 -3.610087,-7.1249561 C 40.28179,4.6115191 37.156244,4.259882 33.90899,4.2333331 Z m -3.675036,4.305283 c 1.352601,0 2.376953,0.519877 3.054211,1.5597809 l 0.658311,1.103733 0.658512,-1.103733 c 0.677121,-1.0399039 1.701474,-1.5597809 3.054211,-1.5597809 1.168951,0 2.110626,0.4109313 2.829896,1.2125833 0.697238,0.8016526 1.044398,1.8853106 1.044398,3.2488576 v 6.671716 h -2.643068 v -6.475665 c 0,-1.365054 -0.574521,-2.057924 -1.723356,-2.057924 -1.270218,0 -1.906777,0.822017 -1.906777,2.447218 v 3.544336 h -2.627632 v -3.544336 c 0,-1.625201 -0.636759,-2.447218 -1.906977,-2.447218 -1.148835,0 -1.723156,0.69287 -1.723156,2.057924 v 6.475665 h -2.643067 v -6.671716 c 0,-1.363547 0.347023,-2.447205 1.044398,-3.2488576 0.719133,-0.801652 1.661008,-1.2125833 2.830096,-1.2125833 z" />
  </g>
</svg>
