<?xml version="1.0" encoding="UTF-8" standalone="no"?>
<svg
   xmlns:dc="http://purl.org/dc/elements/1.1/"
   xmlns:cc="http://creativecommons.org/ns#"
   xmlns:rdf="http://www.w3.org/1999/02/22-rdf-syntax-ns#"
   xmlns:svg="http://www.w3.org/2000/svg"
   xmlns="http://www.w3.org/2000/svg"
   xmlns:sodipodi="http://sodipodi.sourceforge.net/DTD/sodipodi-0.dtd"
   xmlns:inkscape="http://www.inkscape.org/namespaces/inkscape"
   inkscape:version="1.0.1 (3bc2e813f5, 2020-09-07, custom)"
   id="svg8"
   version="1.1"
   viewBox="0 0 67.733332 33.866668"
   height="128"
   width="256"
   sodipodi:docname="startpage.svg">
  <defs
     id="defs2">
    <circle
       id="a"
       cx="50.833"
       cy="50.833"
       r="50.25" />
    <linearGradient
       x1="5.5300981"
       y1="28.948812"
       x2="12.284253"
       y2="28.948812"
       id="c"
       gradientTransform="scale(1.2727833,0.78567969)"
       gradientUnits="userSpaceOnUse">
      <stop
         stop-color="#6176B9"
         offset=".56%"
         id="stop834" />
      <stop
         stop-color="#394A9F"
         offset="69.1%"
         id="stop836" />
    </linearGradient>
    <linearGradient
       x1="20.540734"
       y1="33.655896"
       x2="25.26145"
       y2="33.655896"
       id="d"
       gradientTransform="scale(1.6592652,0.6026764)"
       gradientUnits="userSpaceOnUse">
      <stop
         stop-color="#6176B9"
         offset=".56%"
         id="stop839" />
      <stop
         stop-color="#394A9F"
         offset="69.1%"
         id="stop841" />
    </linearGradient>
    <clipPath
       id="a-6">
      <circle
         cx="127.33"
         cy="78.97"
         r="52"
         id="circle921" />
    </clipPath>
    <linearGradient
       id="b-7"
       gradientUnits="userSpaceOnUse"
       x1="1893.32"
       y1="-2381.98"
       x2="1901.89"
       y2="-2381.98"
       gradientTransform="matrix(1,0,0,-1,-1788,-2321)">
      <stop
         offset=".01"
         stop-color="#6176b9"
         id="stop924" />
      <stop
         offset=".69"
         stop-color="#394a9f"
         id="stop926" />
    </linearGradient>
    <linearGradient
       id="c-5"
       gradientUnits="userSpaceOnUse"
       x1="1920.27"
       y1="-2379.37"
       x2="1928.08"
       y2="-2379.37"
       gradientTransform="matrix(1,0,0,-1,-1788,-2321)">
      <stop
         offset=".01"
         stop-color="#6176b9"
         id="stop929" />
      <stop
         offset=".69"
         stop-color="#394a9f"
         id="stop931" />
    </linearGradient>
    <path
       id="d-3"
       d="M22.56 180.57v-24.6h8.92c8.49 0 12.35 6.24 12.35 12.04 0 6.25-3.82 12.56-12.35 12.56h-8.92zm2.84-2.83h6.08c6.57 0 9.52-4.9 9.52-9.77 0-4.46-2.98-9.27-9.52-9.27H25.4v19.04zm29.66 3.12c-4.56 0-7.5-3.14-7.5-8v-9.55h2.65v9.52c0 3.5 2.04 5.58 5.45 5.58 3.2-.03 5.51-2.48 5.51-5.83v-9.27h2.66v17.26H61.4l-.15-3-.41.52a7.2 7.2 0 0 1-5.8 2.77zm21.73.03c-4.5 0-9.02-2.77-9.02-8.95 0-5.35 3.62-8.94 9.02-8.94 2.36 0 4.43.84 6.16 2.5l-1.67 1.73a6.53 6.53 0 0 0-4.42-1.72c-3.77 0-6.4 2.65-6.4 6.43 0 4.45 3.2 6.44 6.36 6.44 1.78 0 3.4-.63 4.58-1.79l1.73 1.74a8.8 8.8 0 0 1-6.34 2.56zm20.9-.32l-8.44-8.43v8.43h-2.62v-24.56h2.62v14.86l7.37-7.56h3.44l-8.14 8.14 9.13 9.09v.03z" />
  </defs>
  <sodipodi:namedview
     units="px"
     showgrid="false"
     inkscape:document-rotation="0"
     inkscape:current-layer="layer1"
     inkscape:document-units="px"
     inkscape:cy="84.059906"
     inkscape:cx="138.87339"
     inkscape:zoom="2.8284271"
     inkscape:pageshadow="2"
     inkscape:pageopacity="0"
     borderopacity="1.0"
     bordercolor="#666666"
     pagecolor="#ffffff"
     id="base"
     inkscape:window-width="2560"
     inkscape:window-height="1376"
     inkscape:window-x="0"
     inkscape:window-y="0"
     inkscape:window-maximized="1"
     inkscape:snap-bbox="true" />
  <metadata
     id="metadata5">
    <rdf:RDF>
      <cc:Work
         rdf:about="">
        <dc:format>image/svg+xml</dc:format>
        <dc:type
           rdf:resource="http://purl.org/dc/dcmitype/StillImage" />
        <dc:title></dc:title>
      </cc:Work>
    </rdf:RDF>
  </metadata>
  <g
     id="layer1"
     inkscape:groupmode="layer"
     inkscape:label="Layer 1">
    <rect
       style="fill:#374677;stroke-width:3.47907;stroke-linecap:round;paint-order:markers stroke fill;fill-opacity:1"
       id="rect848"
       width="67.733337"
       height="33.866669"
       x="-1.7011719e-06"
       y="-8.5058593e-07" />
    <g
       id="g1163"
       transform="matrix(0.74999644,0,0,0.75,-37.291117,-2.7553877)"
       style="stroke-width:1.33333">
      <path
         id="path1132"
         style="fill:#1f2845;fill-opacity:1;stroke:none;stroke-width:4.00001;stroke-linecap:square;stroke-linejoin:bevel;paint-order:markers stroke fill"
         d="m 422.57812,109.25977 c -40.67417,0.14059 -91.0276,5.00586 -127.98632,8.20117 V 138.75 c 0.28169,13.60197 11.31443,24.46875 24.98632,24.46875 h 78 c 13.84997,0 25,-11.15 25,-25 z"
         transform="scale(0.26458334)" />
      <path
         id="rect1124"
         style="fill:#6673ff;fill-opacity:1;stroke:none;stroke-width:4.00001;stroke-linecap:square;stroke-linejoin:bevel;paint-order:markers stroke fill"
         d="m 319.57812,35.21875 c -13.67189,0 -24.70463,10.866779 -24.98632,24.46875 v 43.92578 c 0.0579,-0.0102 0.10585,-0.0187 0.16406,-0.0293 17.72308,-3.12416 39.72662,-3.800238 60.83594,-4.162105 37.80731,-0.648121 66.9477,0.876885 66.98632,0.878905 V 60.21875 c 0,-13.849999 -11.15003,-25 -25,-25 z"
         transform="scale(0.26458334)" />
      <path
         id="path1118"
         style="fill:#ffffff;stroke:none;stroke-width:0.352777px;stroke-linecap:butt;stroke-linejoin:miter;stroke-opacity:1"
         d="m 94.083651,26.305363 c -5.585173,0.09575 -11.40677,0.274624 -16.096003,1.101225 -0.0154,0.0027 -0.02809,0.0051 -0.04341,0.0078 v 3.663859 C 87.723979,30.23273 101.04857,28.94528 111.81091,28.908355 v -2.370656 c 0,0 -7.71744,-0.403881 -17.727263,-0.232286 z"
         sodipodi:nodetypes="ssccccss" />
    </g>
  </g>
</svg>
